Przekształcanie danych z użyciem dplyr,
…
``` r
podatki <- read_excel(here("dane",
                           "Chapter14TablesFigures.xlsx"),
                      sheet = "TS14.1",
                      skip = 3)

*clean_names(podatki)
```
]
 
.panel2-wczytywanie-auto[

```
# A tibble: 120 × 15
   x1      u_s    u_k germany france x6    u_s_top_marginal_rate_on_earned_inc…¹
   <chr> <dbl>  <dbl>   <dbl>  <dbl> <lgl>                                 <dbl>
 1 1900      0 0         0.03      0 NA                                        0
 2 1901      0 0         0.03      0 NA                                        0
 3 1902      0 0         0.03      0 NA                                        0
 4 1903      0 0         0.03      0 NA                                        0
 5 1904      0 0         0.03      0 NA                                        0
 6 1905      0 0         0.03      0 NA                                        0
 7 1906      0 0         0.03      0 NA                                        0
 8 1907      0 0         0.03      0 NA                                        0
 9 1908      0 0         0.03      0 NA                                        0
10 1909      0 0.0833    0.03      0 NA                                        0
# ℹ 110 more rows
# ℹ abbreviated name: ¹​u_s_top_marginal_rate_on_earned_income
# ℹ 8 more variables: u_s_top_effective_rate <dbl>, x9 <lgl>,
#   u_k_top_marginal_rate_on_earned_income <dbl>, x11 <lgl>,
#   france_income_tax <dbl>, france_csg <dbl>, x14 <lgl>,
#   japan_saez_morigushi_table_a0 <dbl>
```
…
